…
    #> # A tibble: 1 × 6
    #>      id index term           type  value           code 
    #>   <int> <chr> <chr>          <chr> <chr>           <chr>
    #> 1    38 A     Achillorrhaphy See   Repair, Tendons 0LQ

## Tables

``` r
tables("0L")
```

    #> # A tibble: 1,544 × 3
    #>    order code    description                                                    
    #>    <int> <chr>   <chr>                                                          
    #>  1 40241 0L2XX0Z Change Drainage Device in Upper Tendon, External Approach      
    #>  2 40242 0L2XXYZ Change Other Device in Upper Tendon, External Approach         
    #>  3 40243 0L2YX0Z Change Drainage Device in Lower Tendon, External Approach      
    #>  4 40244 0L2YXYZ Change Other Device in Lower Tendon, External Approach         
    #>  5 40245 0L500ZZ Destruction of Head and Neck Tendon, Open Approach             
    #>  6 40246 0L503ZZ Destruction of Head and Neck Tendon, Percutaneous Approach     
    #>  7 40247 0L504ZZ Destruction of Head and Neck Tendon, Percutaneous Endoscopic A…
    #>  8 40248 0L510ZZ Destruction of Right Shoulder Tendon, Open Approach            
    #>  9 40249 0L513ZZ Destruction of Right Shoulder Tendon, Percutaneous Approach    
    #> 10 40250 0L514ZZ Destruction of Right Shoulder Tendon, Percutaneous Endoscopic …
    #> # ℹ 1,534 more rows

``` r
tables("0LQ")
```

    #> # A tibble: 84 × 3
    #>    order code    description                                                   
    #>    <int> <chr>   <chr>                                                         
    #>  1 41159 0LQ00ZZ Repair Head and Neck Tendon, Open Approach                    
    #>  2 41160 0LQ03ZZ Repair Head and Neck Tendon, Percutaneous Approach            
    #>  3 41161 0LQ04ZZ Repair Head and Neck Tendon, Percutaneous Endoscopic Approach 
    #>  4 41162 0LQ10ZZ Repair Right Shoulder Tendon, Open Approach                   
    #>  5 41163 0LQ13ZZ Repair Right Shoulder Tendon, Percutaneous Approach           
    #>  6 41164 0LQ14ZZ Repair Right Shoulder Tendon, Percutaneous Endoscopic Approach
    #>  7 41165 0LQ20ZZ Repair Left Shoulder Tendon, Open Approach                    
    #>  8 41166 0LQ23ZZ Repair Left Shoulder Tendon, Percutaneous Approach            
    #>  9 41167 0LQ24ZZ Repair Left Shoulder Tendon, Percutaneous Endoscopic Approach 
    #> 10 41168 0LQ30ZZ Repair Right Upper Arm Tendon, Open Approach                  
    #> # ℹ 74 more rows

``` r
tables("0LQ")$codes
```

    #> NULL

## Rows

``` r
rows("0LQ")
```

    #> # A tibble: 28 × 5
    #>    table row   description                                  rowid axes        
    #>    <chr> <chr> <chr>                                        <int> <named list>
    #>  1 0LQ   0LQ0  Body Part, Head and Neck Tendon                983 <tibble>    
    #>  2 0LQ   0LQ1  Body Part, Shoulder Tendon, Right              983 <tibble>    
    #>  3 0LQ   0LQ2  Body Part, Shoulder Tendon, Left               983 <tibble>    
    #>  4 0LQ   0LQ3  Body Part, Upper Arm Tendon, Right             983 <tibble>    
    #>  5 0LQ   0LQ4  Body Part, Upper Arm Tendon, Left              983 <tibble>    
    #>  6 0LQ   0LQ5  Body Part, Lower Arm and Wrist Tendon, Right   983 <tibble>    
    #>  7 0LQ   0LQ6  Body Part, Lower Arm and Wrist Tendon, Left    983 <tibble>    
    #>  8 0LQ   0LQ7  Body Part, Hand Tendon, Right                  983 <tibble>    
    #>  9 0LQ   0LQ8  Body Part, Hand Tendon, Left                   983 <tibble>    
    #> 10 0LQ   0LQ9  Body Part, Trunk Tendon, Right                 983 <tibble>    
    #> # ℹ 18 more rows
…
