Return a range of ICD-10-PCS codes — code_range • procedural
…
code_range("0G9000Z", "10D20ZZ")
#> # A tibble: 32,901 × 4
#>    order code    table row  
#>    <int> <chr>   <chr> <chr>
#>  1 35212 0G9000Z 0G9   0G90 
#>  2 35213 0G900ZX 0G9   0G90 
#>  3 35214 0G900ZZ 0G9   0G90 
#>  4 35215 0G9030Z 0G9   0G90 
#>  5 35216 0G903ZX 0G9   0G90 
#>  6 35217 0G903ZZ 0G9   0G90 
#>  7 35218 0G9040Z 0G9   0G90 
#>  8 35219 0G904ZX 0G9   0G90 
#>  9 35220 0G904ZZ 0G9   0G90 
#> 10 35221 0G9100Z 0G9   0G91 
#> # ℹ 32,891 more rows
…
