ICD-10-PCS Devices — devices • procedural
…
col
column to search: "device_name" (default), "section", "system", "operation", "device", "includes"

search
string to search for in col

    Value

    a tibble

    Examples

devices()
#> # A tibble: 99 × 6
#>    section system operation      device device_name                  includes   
#>    <chr>   <chr>  <chr>          <chr>  <chr>                        <chr>      
#>  1 0       2      All applicable 7      Autologous Tissue Substitute Autologous…
#>  2 0       4      All applicable 7      Autologous Tissue Substitute Autologous…
#>  3 0       6      All applicable 7      Autologous Tissue Substitute Autologous…
#>  4 0       3      All applicable 7      Autologous Tissue Substitute Autologous…
#>  5 0       5      All applicable 7      Autologous Tissue Substitute Autologous…
#>  6 0       2      All applicable 7      Autologous Tissue Substitute Autologous…
#>  7 0       4      All applicable 7      Autologous Tissue Substitute Autologous…
#>  8 0       6      All applicable 7      Autologous Tissue Substitute Autologous…
#>  9 0       3      All applicable 7      Autologous Tissue Substitute Autologous…
#> 10 0       5      All applicable 7      Autologous Tissue Substitute Autologous…
#> # ℹ 89 more rows
…
