ICD-10-PCS Includes — includes • procedural
…
col
column to search: "name", "label" (default), "includes"

search
string to search for in col

    Value

    a tibble

    Examples

includes(section = "0", axis = "3")
#> # A tibble: 31 × 5
#>    section axis  name      label       includes                                 
#>    <chr>   <chr> <chr>     <chr>       <chr>                                    
#>  1 0       3     Operation Alteration  Face lift, breast augmentation           
#>  2 0       3     Operation Bypass      Coronary artery bypass, colostomy format…
#>  3 0       3     Operation Change      Urinary catheter change, gastrostomy tub…
#>  4 0       3     Operation Control     Control of post-prostatectomy hemorrhage…
#>  5 0       3     Operation Creation    Creation of vagina in a male, creation o…
#>  6 0       3     Operation Destruction Fulguration of rectal polyp, cautery of …
#>  7 0       3     Operation Detachment  Below knee amputation, disarticulation o…
#>  8 0       3     Operation Dilation    Percutaneous transluminal angioplasty, i…
#>  9 0       3     Operation Division    Spinal cordotomy, osteotomy              
#> 10 0       3     Operation Drainage    Thoracentesis, incision and drainage     
#> # ℹ 21 more rows
…
