Getting started • procedural
…
#> Error in tab_header(opt_align_table_header(opt_all_caps(tab_style(cols_align(opt_table_font(gt(sections()[c("code", : could not find function "tab_header"

Systems

systems()

#> # A tibble: 114 × 4
#>     axis name        code  label                                    
#>    <int> <chr>       <chr> <chr>                                    
#>  1     2 Body System 00    Central Nervous System and Cranial Nerves
#>  2     2 Body System 01    Peripheral Nervous System                
#>  3     2 Body System 02    Heart and Great Vessels                  
#>  4     2 Body System 03    Upper Arteries                           
#>  5     2 Body System 04    Lower Arteries                           
#>  6     2 Body System 05    Upper Veins                              
#>  7     2 Body System 06    Lower Veins                              
#>  8     2 Body System 07    Lymphatic and Hemic Systems              
#>  9     2 Body System 08    Eye                                      
#> 10     2 Body System 09    Ear, Nose, Sinus                         
#> # ℹ 104 more rows
…
